TERCER SEMESTRE/TEORIA DE CIRCUITOS AC/hoyyy/NewFile6.csv

X,CH1,Start,Increment,
Sequence,Volt,-6.000000e-03,1.000000e-06
0,-2.32e+00,
1,-2.32e+00,
2,-2.32e+00,
3,-2.32e+00,
4,-2.32e+00,
5,-2.32e+00,
6,-2.32e+00,
7,-2.32e+00,
8,-2.24e+00,
9,-2.24e+00,
10,-2.24e+00,
11,-2.24e+00,
12,-2.24e+00,
13,-2.24e+00,
14,-2.24e+00,
15,-2.24e+00,
16,-2.24e+00,
17,-2.24e+00,
18,-2.24e+00,
19,-2.24e+00,
20,-2.24e+00,
21,-2.24e+00,
22,-2.16e+00,
23,-2.16e+00,
24,-2.16e+00,
25,-2.16e+00,
26,-2.16e+00,
27,-2.16e+00,
28,-2.16e+00,
29,-2.16e+00,
30,-2.16e+00,
31,-2.16e+00,
32,-2.08e+00,
33,-2.08e+00,
34,-2.08e+00,
35,-2.08e+00,
36,-2.08e+00,
37,-2.08e+00,
38,-2.08e+00,
39,-2.08e+00,
40,-2.08e+00,
41,-2.08e+00,
42,-2.00e+00,
43,-2.00e+00,
44,-2.00e+00,
45,-2.00e+00,
46,-2.00e+00,
47,-2.00e+00,
48,-2.00e+00,
49,-2.00e+00,
50,-2.00e+00,
51,-2.00e+00,
52,-2.00e+00,
53,-2.00e+00,
54,-1.92e+00,
55,-1.92e+00,
56,-1.92e+00,
57,-1.92e+00,
58,-1.92e+00,
59,-1.92e+00,
60,-1.92e+00,
61,-1.92e+00,
62,-1.92e+00,
63,-1.92e+00,
64,-1.92e+00,
65,-1.92e+00,
66,-1.84e+00,
67,-1.84e+00,
68,-1.84e+00,
69,-1.84e+00,
70,-1.84e+00,
71,-1.84e+00,
72,-1.84e+00,
73,-1.84e+00,
74,-1.84e+00,
75,-1.84e+00,
76,-1.76e+00,
77,-1.76e+00,
78,-1.76e+00,
79,-1.76e+00,
80,-1.76e+00,
81,-1.76e+00,
82,-1.76e+00,
83,-1.76e+00,
84,-1.76e+00,
85,-1.76e+00,
86,-1.68e+00,
87,-1.68e+00,
88,-1.68e+00,
89,-1.68e+00,
90,-1.68e+00,
91,-1.68e+00,
92,-1.68e+00,
93,-1.68e+00,
94,-1.68e+00,
95,-1.68e+00,
96,-1.60e+00,
97,-1.68e+00,
98,-1.60e+00,
99,-1.60e+00,
100,-1.60e+00,
101,-1.60e+00,
102,-1.60e+00,
103,-1.60e+00,
104,-1.60e+00,
105,-1.60e+00,
106,-1.60e+00,
107,-1.60e+00,
108,-1.52e+00,
109,-1.52e+00,
110,-1.52e+00,
111,-1.52e+00,
112,-1.52e+00,
113,-1.52e+00,
114,-1.52e+00,
115,-1.52e+00,
116,-1.52e+00,
117,-1.52e+00,
118,-1.44e+00,
119,-1.44e+00,
120,-1.44e+00,
121,-1.44e+00,
122,-1.44e+00,
123,-1.44e+00,
124,-1.44e+00,
125,-1.44e+00,
126,-1.44e+00,
127,-1.44e+00,
128,-1.36e+00,
129,-1.36e+00,
130,-1.36e+00,
131,-1.36e+00,
132,-1.36e+00,
133,-1.36e+00,
134,-1.36e+00,
135,-1.36e+00,
136,-1.36e+00,
137,-1.36e+00,
138,-1.28e+00,
139,-1.28e+00,
140,-1.28e+00,
141,-1.28e+00,
142,-1.28e+00,
143,-1.28e+00,
144,-1.28e+00,
145,-1.28e+00,
146,-1.28e+00,
147,-1.28e+00,
148,-1.28e+00,
149,-1.20e+00,
150,-1.20e+00,
151,-1.20e+00,
152,-1.20e+00,
153,-1.20e+00,
154,-1.20e+00,
155,-1.20e+00,
156,-1.20e+00,
157,-1.20e+00,
158,-1.12e+00,
159,-1.12e+00,
160,-1.12e+00,
161,-1.12e+00,
162,-1.12e+00,
163,-1.12e+00,
164,-1.12e+00,
165,-1.12e+00,
166,-1.12e+00,
167,-1.12e+00,
168,-1.12e+00,
169,-1.04e+00,
170,-1.04e+00,
171,-1.04e+00,
172,-1.04e+00,
173,-1.04e+00,
174,-1.04e+00,
175,-1.04e+00,
176,-1.04e+00,
177,-1.04e+00,
178,-1.04e+00,
179,-9.60e-01,
180,-9.60e-01,
181,-9.60e-01,
182,-9.60e-01,
183,-9.60e-01,
184,-9.60e-01,
185,-9.60e-01,
186,-9.60e-01,
187,-9.60e-01,
188,-9.60e-01,
189,-9.60e-01,
190,-8.80e-01,
191,-8.80e-01,
192,-8.80e-01,
193,-8.80e-01,
194,-8.80e-01,
195,-8.80e-01,
196,-8.80e-01,
197,-8.80e-01,
198,-8.80e-01,
199,-8.80e-01,
200,-7.20e-01,
201,-7.20e-01,
202,-7.20e-01,
203,-7.20e-01,
204,-7.20e-01,
205,-7.20e-01,
206,-7.20e-01,
207,-7.20e-01,
208,-7.20e-01,
209,-6.40e-01,
210,-6.40e-01,
211,-6.40e-01,
212,-6.40e-01,
213,-6.40e-01,
214,-6.40e-01,
215,-6.40e-01,
216,-6.40e-01,
217,-6.40e-01,
218,-6.40e-01,
219,-5.60e-01,
220,-5.60e-01,
221,-5.60e-01,
222,-5.60e-01,
223,-5.60e-01,
224,-5.60e-01,
225,-5.60e-01,
226,-5.60e-01,
227,-5.60e-01,
228,-5.60e-01,
229,-4.80e-01,
230,-4.80e-01,
231,-4.80e-01,
232,-4.80e-01,
233,-4.80e-01,
234,-4.80e-01,
235,-4.80e-01,
236,-4.80e-01,
237,-4.80e-01,
238,-4.80e-01,
239,-4.00e-01,
240,-4.00e-01,
241,-4.00e-01,
242,-4.00e-01,
243,-4.00e-01,
244,-4.00e-01,
245,-4.00e-01,
246,-4.00e-01,
247,-4.00e-01,
248,-4.00e-01,
249,-3.20e-01,
250,-3.20e-01,
251,-3.20e-01,
252,-3.20e-01,
253,-3.20e-01,
254,-3.20e-01,
255,-3.20e-01,
256,-3.20e-01,
257,-3.20e-01,
258,-2.40e-01,
259,-2.40e-01,
260,-2.40e-01,
261,-2.40e-01,
262,-2.40e-01,
263,-2.40e-01,
264,-2.40e-01,
265,-2.40e-01,
266,-2.40e-01,
267,-2.40e-01,
268,-1.60e-01,
269,-1.60e-01,
270,-1.60e-01,
271,-1.60e-01,
272,-1.60e-01,
273,-1.60e-01,
274,-1.60e-01,
275,-1.60e-01,
276,-1.60e-01,
277,-8.00e-02,
278,-8.00e-02,
279,-8.00e-02,
280,-8.00e-02,
281,-8.00e-02,
282,-8.00e-02,
283,-8.00e-02,
284,-8.00e-02,
285,-8.00e-02,
286,-8.00e-02,
287,-8.00e-02,
288,0.00e+00,
289,0.00e+00,
290,0.00e+00,
291,0.00e+00,
292,0.00e+00,
293,0.00e+00,
294,0.00e+00,
295,0.00e+00,
296,8.00e-02,
297,8.00e-02,
298,8.00e-02,
299,8.00e-02,
300,8.00e-02,
301,8.00e-02,
302,8.00e-02,
303,8.00e-02,
304,8.00e-02,
305,8.00e-02,
306,1.60e-01,
307,1.60e-01,
308,1.60e-01,
309,1.60e-01,
310,1.60e-01,
311,1.60e-01,
312,1.60e-01,
313,1.60e-01,
314,1.60e-01,
315,2.40e-01,
316,2.40e-01,
317,2.40e-01,
318,2.40e-01,
319,2.40e-01,
320,2.40e-01,
321,2.40e-01,
322,2.40e-01,
323,2.40e-01,
324,2.40e-01,
325,2.40e-01,
326,3.20e-01,
327,3.20e-01,
328,3.20e-01,
329,3.20e-01,
330,3.20e-01,
331,3.20e-01,
332,3.20e-01,
333,3.20e-01,
334,3.20e-01,
335,4.00e-01,
336,4.00e-01,
337,4.00e-01,
338,4.00e-01,
339,4.00e-01,
340,4.00e-01,
341,4.00e-01,
342,4.00e-01,
343,4.00e-01,
344,4.00e-01,
345,4.80e-01,
346,4.80e-01,
347,4.80e-01,
348,4.80e-01,
349,4.80e-01,
350,4.80e-01,
351,4.80e-01,
352,4.80e-01,
353,4.80e-01,
354,4.80e-01,
355,5.60e-01,
356,5.60e-01,
357,5.60e-01,
358,5.60e-01,
359,5.60e-01,
360,5.60e-01,
361,5.60e-01,
362,5.60e-01,
363,5.60e-01,
364,5.60e-01,
365,6.40e-01,
366,6.40e-01,
367,6.40e-01,
368,6.40e-01,
369,6.40e-01,
370,6.40e-01,
371,6.40e-01,
372,6.40e-01,
373,6.40e-01,
374,6.40e-01,
375,7.20e-01,
376,7.20e-01,
377,7.20e-01,
378,7.20e-01,
379,7.20e-01,
380,7.20e-01,
381,7.20e-01,
382,7.20e-01,
383,7.20e-01,
384,8.00e-01,
385,8.00e-01,
386,8.00e-01,
387,8.00e-01,
388,8.00e-01,
389,8.00e-01,
390,8.00e-01,
391,8.00e-01,
392,8.00e-01,
393,8.00e-01,
394,8.00e-01,
395,8.00e-01,
396,8.80e-01,
397,8.80e-01,
398,8.80e-01,
399,8.80e-01,
400,8.80e-01,
401,8.80e-01,
402,8.80e-01,
403,8.80e-01,
404,8.80e-01,
405,8.80e-01,
406,9.60e-01,
407,9.60e-01,
408,9.60e-01,
409,9.60e-01,
410,9.60e-01,
411,9.60e-01,
412,9.60e-01,
413,9.60e-01,
414,9.60e-01,
415,9.60e-01,
416,1.04e+00,
417,1.04e+00,
418,1.04e+00,
419,1.04e+00,
420,1.04e+00,
421,1.04e+00,
422,1.04e+00,
423,1.04e+00,
424,1.04e+00,
425,1.04e+00,
426,1.12e+00,
427,1.04e+00,
428,1.12e+00,
429,1.12e+00,
430,1.12e+00,
431,1.12e+00,
432,1.12e+00,
433,1.12e+00,
434,1.12e+00,
435,1.12e+00,
436,1.12e+00,
437,1.20e+00,
438,1.20e+00,
439,1.20e+00,
440,1.20e+00,
441,1.20e+00,
442,1.20e+00,
443,1.20e+00,
444,1.20e+00,
445,1.20e+00,
446,1.20e+00,
447,1.28e+00,
448,1.28e+00,
449,1.28e+00,
450,1.28e+00,
451,1.28e+00,
452,1.28e+00,
453,1.28e+00,
454,1.28e+00,
455,1.28e+00,
456,1.28e+00,
457,1.28e+00,
458,1.36e+00,
459,1.36e+00,
460,1.36e+00,
461,1.36e+00,
462,1.36e+00,
463,1.36e+00,
464,1.36e+00,
465,1.36e+00,
466,1.36e+00,
467,1.36e+00,
468,1.36e+00,
469,1.44e+00,
470,1.44e+00,
471,1.44e+00,
472,1.44e+00,
473,1.44e+00,
474,1.44e+00,
475,1.44e+00,
476,1.44e+00,
477,1.44e+00,
478,1.44e+00,
479,1.44e+00,
480,1.44e+00,
481,1.52e+00,
482,1.52e+00,
483,1.52e+00,
484,1.52e+00,
485,1.52e+00,
486,1.52e+00,
487,1.52e+00,
488,1.52e+00,
489,1.52e+00,
490,1.68e+00,
491,1.68e+00,
492,1.68e+00,
493,1.68e+00,
494,1.68e+00,
495,1.68e+00,
496,1.68e+00,
497,1.68e+00,
498,1.68e+00,
499,1.68e+00,
500,1.68e+00,
501,1.76e+00,
502,1.76e+00,
503,1.76e+00,
504,1.76e+00,
505,1.76e+00,
506,1.76e+00,
507,1.76e+00,
508,1.76e+00,
509,1.76e+00,
510,1.76e+00,
511,1.76e+00,
512,1.84e+00,
513,1.84e+00,
514,1.84e+00,
515,1.84e+00,
516,1.84e+00,
517,1.84e+00,
518,1.84e+00,
519,1.84e+00,
520,1.84e+00,
521,1.84e+00,
522,1.84e+00,
523,1.84e+00,
524,1.92e+00,
525,1.92e+00,
526,1.92e+00,
527,1.92e+00,
528,1.92e+00,
529,1.92e+00,
530,1.92e+00,
531,1.92e+00,
532,1.92e+00,
533,1.92e+00,
534,2.00e+00,
535,1.92e+00,
536,2.00e+00,
537,2.00e+00,
538,2.00e+00,
539,2.00e+00,
540,2.00e+00,
541,2.00e+00,
542,2.00e+00,
543,2.00e+00,
544,2.00e+00,
545,2.00e+00,
546,2.00e+00,
547,2.08e+00,
548,2.08e+00,
549,2.08e+00,
550,2.08e+00,
551,2.08e+00,
552,2.08e+00,
553,2.08e+00,
554,2.08e+00,
555,2.08e+00,
556,2.08e+00,
557,2.08e+00,
558,2.08e+00,
559,2.08e+00,
560,2.16e+00,
561,2.16e+00,
562,2.16e+00,
563,2.16e+00,
564,2.16e+00,
565,2.16e+00,
566,2.16e+00,
567,2.16e+00,
568,2.16e+00,
569,2.16e+00,
570,2.24e+00,
571,2.24e+00,
572,2.24e+00,
573,2.24e+00,
574,2.24e+00,
575,2.24e+00,
576,2.24e+00,
577,2.24e+00,
578,2.24e+00,
579,2.24e+00,
580,2.24e+00,
581,2.24e+00,
582,2.32e+00,
583,2.32e+00,
584,2.32e+00,
585,2.32e+00,
586,2.32e+00,
587,2.32e+00,
588,2.32e+00,
589,2.32e+00,
590,2.32e+00,
591,2.32e+00,
592,2.32e+00,
593,2.32e+00,
594,2.32e+00,
595,2.40e+00,
596,2.40e+00,
597,2.40e+00,
598,2.40e+00,
599,2.40e+00,
600,2.40e+00,
601,2.40e+00,
602,2.40e+00,
603,2.40e+00,
604,2.40e+00,
605,2.40e+00,
606,2.48e+00,
607,2.48e+00,
608,2.48e+00,
609,2.48e+00,
610,2.48e+00,
611,2.48e+00,
612,2.48e+00,
613,2.48e+00,
614,2.48e+00,
615,2.48e+00,
616,2.48e+00,
617,2.48e+00,
618,2.48e+00,
619,2.48e+00,
620,2.56e+00,
621,2.56e+00,
622,2.56e+00,
623,2.56e+00,
624,2.56e+00,
625,2.56e+00,
626,2.56e+00,
627,2.56e+00,
628,2.56e+00,
629,2.56e+00,
630,2.56e+00,
631,2.56e+00,
632,2.56e+00,
633,2.64e+00,
634,2.64e+00,
635,2.64e+00,
636,2.64e+00,
637,2.64e+00,
638,2.64e+00,
639,2.64e+00,
640,2.64e+00,
641,2.64e+00,
642,2.64e+00,
643,2.64e+00,
644,2.64e+00,
645,2.64e+00,
646,2.64e+00,
647,2.64e+00,
648,2.72e+00,
649,2.72e+00,
650,2.72e+00,
651,2.72e+00,
652,2.72e+00,
653,2.72e+00,
654,2.72e+00,
655,2.72e+00,
656,2.72e+00,
657,2.72e+00,
658,2.72e+00,
659,2.72e+00,
660,2.72e+00,
661,2.80e+00,
662,2.72e+00,
663,2.80e+00,
664,2.80e+00,
665,2.80e+00,
666,2.80e+00,
667,2.80e+00,
668,2.80e+00,
669,2.80e+00,
670,2.80e+00,
671,2.80e+00,
672,2.80e+00,
673,2.80e+00,
674,2.80e+00,
675,2.80e+00,
676,2.80e+00,
677,2.88e+00,
678,2.88e+00,
679,2.88e+00,
680,2.88e+00,
681,2.88e+00,
682,2.88e+00,
683,2.88e+00,
684,2.88e+00,
685,2.88e+00,
686,2.88e+00,
687,2.88e+00,
688,2.88e+00,
689,2.88e+00,
690,2.88e+00,
691,2.96e+00,
692,2.96e+00,
693,2.96e+00,
694,2.96e+00,
695,2.96e+00,
696,2.96e+00,
697,2.96e+00,
698,2.96e+00,
699,2.96e+00,
700,2.96e+00,
701,2.96e+00,
702,2.96e+00,
703,2.96e+00,
704,2.96e+00,
705,2.96e+00,
706,2.96e+00,
707,2.96e+00,
708,3.04e+00,
709,3.04e+00,
710,3.04e+00,
711,3.04e+00,
712,3.04e+00,
713,3.04e+00,
714,3.04e+00,
715,3.04e+00,
716,3.04e+00,
717,3.04e+00,
718,3.04e+00,
719,3.04e+00,
720,3.04e+00,
721,3.04e+00,
722,3.04e+00,
723,3.12e+00,
724,3.04e+00,
725,3.12e+00,
726,3.12e+00,
727,3.12e+00,
728,3.12e+00,
729,3.12e+00,
730,3.12e+00,
731,3.12e+00,
732,3.12e+00,
733,3.12e+00,
734,3.12e+00,
735,3.12e+00,
736,3.12e+00,
737,3.12e+00,
738,3.12e+00,
739,3.12e+00,
740,3.12e+00,
741,3.12e+00,
742,3.12e+00,
743,3.20e+00,
744,3.20e+00,
745,3.20e+00,
746,3.20e+00,
747,3.20e+00,
748,3.20e+00,
749,3.20e+00,
750,3.20e+00,
751,3.20e+00,
752,3.20e+00,
753,3.20e+00,
754,3.20e+00,
755,3.20e+00,
756,3.20e+00,
757,3.20e+00,
758,3.20e+00,
759,3.20e+00,
760,3.20e+00,
761,3.20e+00,
762,3.28e+00,
763,3.28e+00,
764,3.28e+00,
765,3.28e+00,
766,3.28e+00,
767,3.28e+00,
768,3.28e+00,
769,3.28e+00,
770,3.28e+00,
771,3.28e+00,
772,3.28e+00,
773,3.28e+00,
774,3.28e+00,
775,3.28e+00,
776,3.28e+00,
777,3.28e+00,
778,3.28e+00,
779,3.28e+00,
780,3.28e+00,
781,3.28e+00,
782,3.36e+00,
783,3.28e+00,
784,3.36e+00,
785,3.36e+00,
786,3.36e+00,
787,3.36e+00,
788,3.36e+00,
789,3.36e+00,
790,3.36e+00,
791,3.36e+00,
792,3.36e+00,
793,3.36e+00,
794,3.36e+00,
795,3.36e+00,
796,3.36e+00,
797,3.36e+00,
798,3.36e+00,
799,3.36e+00,
800,3.36e+00,
801,3.36e+00,
802,3.36e+00,
803,3.36e+00,
804,3.44e+00,
805,3.44e+00,
806,3.36e+00,
807,3.44e+00,
808,3.44e+00,
809,3.44e+00,
810,3.44e+00,
811,3.44e+00,
812,3.44e+00,
813,3.44e+00,
814,3.44e+00,
815,3.44e+00,
816,3.44e+00,
817,3.44e+00,
818,3.44e+00,
819,3.44e+00,
820,3.44e+00,
821,3.44e+00,
822,3.44e+00,
823,3.44e+00,
824,3.44e+00,
825,3.44e+00,
826,3.44e+00,
827,3.44e+00,
828,3.44e+00,
829,3.52e+00,
830,3.52e+00,
831,3.52e+00,
832,3.44e+00,
833,3.52e+00,
834,3.52e+00,
835,3.52e+00,
836,3.52e+00,
837,3.52e+00,
838,3.52e+00,
839,3.52e+00,
840,3.52e+00,
841,3.52e+00,
842,3.52e+00,
843,3.52e+00,
844,3.52e+00,
845,3.52e+00,
846,3.52e+00,
847,3.52e+00,
848,3.52e+00,
849,3.52e+00,
850,3.52e+00,
851,3.52e+00,
852,3.52e+00,
853,3.52e+00,
854,3.52e+00,
855,3.52e+00,
856,3.60e+00,
857,3.52e+00,
858,3.52e+00,
859,3.60e+00,
860,3.60e+00,
861,3.60e+00,
862,3.60e+00,
863,3.60e+00,
864,3.60e+00,
865,3.60e+00,
866,3.60e+00,
867,3.60e+00,
868,3.60e+00,
869,3.60e+00,
870,3.60e+00,
871,3.60e+00,
872,3.60e+00,
873,3.60e+00,
874,3.60e+00,
875,3.60e+00,
876,3.60e+00,
877,3.60e+00,
878,3.60e+00,
879,3.60e+00,
880,3.60e+00,
881,3.60e+00,
882,3.60e+00,
883,3.60e+00,
884,3.60e+00,
885,3.60e+00,
886,3.60e+00,
887,3.60e+00,
888,3.60e+00,
889,3.60e+00,
890,3.60e+00,
891,3.60e+00,
892,3.68e+00,
893,3.68e+00,
894,3.68e+00,
895,3.68e+00,
896,3.68e+00,
897,3.68e+00,
898,3.68e+00,
899,3.68e+00,
900,3.68e+00,
901,3.68e+00,
902,3.68e+00,
903,3.68e+00,
904,3.68e+00,
905,3.68e+00,
906,3.68e+00,
907,3.68e+00,
908,3.68e+00,
909,3.68e+00,
910,3.68e+00,
911,3.68e+00,
912,3.68e+00,
913,3.68e+00,
914,3.68e+00,
915,3.68e+00,
916,3.68e+00,
917,3.68e+00,
918,3.68e+00,
919,3.68e+00,
920,3.68e+00,
921,3.68e+00,
922,3.68e+00,
923,3.68e+00,
924,3.68e+00,
925,3.68e+00,
926,3.68e+00,
927,3.68e+00,
928,3.68e+00,
929,3.68e+00,
930,3.68e+00,
931,3.68e+00,
932,3.68e+00,
933,3.68e+00,
934,3.68e+00,
935,3.68e+00,
936,3.68e+00,
937,3.76e+00,
938,3.68e+00,
939,3.68e+00,
940,3.68e+00,
941,3.68e+00,
942,3.68e+00,
943,3.76e+00,
944,3.68e+00,
945,3.76e+00,
946,3.76e+00,
947,3.76e+00,
948,3.76e+00,
949,3.76e+00,
950,3.76e+00,
951,3.76e+00,
952,3.76e+00,
953,3.76e+00,
954,3.76e+00,
955,3.76e+00,
956,3.76e+00,
957,3.76e+00,
958,3.76e+00,
959,3.76e+00,
960,3.76e+00,
961,3.76e+00,
962,3.76e+00,
963,3.76e+00,
964,3.76e+00,
965,3.76e+00,
966,3.76e+00,
967,3.76e+00,
968,3.76e+00,
969,3.76e+00,
970,3.76e+00,
971,3.76e+00,
972,3.76e+00,
973,3.76e+00,
974,3.76e+00,
975,3.76e+00,
976,3.76e+00,
977,3.76e+00,
978,3.76e+00,
979,3.76e+00,
980,3.76e+00,
981,3.76e+00,
982,3.76e+00,
983,3.76e+00,
984,3.76e+00,
985,3.76e+00,
986,3.76e+00,
987,3.76e+00,
988,3.76e+00,
989,3.76e+00,
990,3.76e+00,
991,3.76e+00,
992,3.76e+00,
993,3.76e+00,
994,3.76e+00,
995,3.76e+00,
996,3.76e+00,
997,3.76e+00,
998,3.76e+00,
999,3.76e+00,
1000,3.76e+00,
1001,3.76e+00,
1002,3.76e+00,
1003,3.76e+00,
1004,3.76e+00,
1005,3.76e+00,
1006,3.76e+00,
1007,3.76e+00,
1008,3.76e+00,
1009,3.76e+00,
1010,3.76e+00,
1011,3.76e+00,
1012,3.76e+00,
1013,3.76e+00,
1014,3.76e+00,
1015,3.76e+00,
1016,3.76e+00,
1017,3.76e+00,
1018,3.76e+00,
1019,3.76e+00,
1020,3.76e+00,
1021,3.76e+00,
1022,3.76e+00,
1023,3.76e+00,
1024,3.76e+00,
1025,3.76e+00,
1026,3.76e+00,
1027,3.76e+00,
1028,3.76e+00,
1029,3.76e+00,
1030,3.76e+00,
1031,3.76e+00,
1032,3.76e+00,
1033,3.76e+00,
1034,3.76e+00,
1035,3.76e+00,
1036,3.76e+00,
1037,3.76e+00,
1038,3.76e+00,
1039,3.76e+00,
1040,3.76e+00,
1041,3.76e+00,
1042,3.76e+00,
1043,3.76e+00,
1044,3.76e+00,
1045,3.76e+00,
1046,3.76e+00,
1047,3.76e+00,
1048,3.76e+00,
1049,3.76e+00,
1050,3.76e+00,
1051,3.76e+00,
1052,3.68e+00,
1053,3.76e+00,
1054,3.68e+00,
1055,3.68e+00,
1056,3.76e+00,
1057,3.68e+00,
1058,3.76e+00,
1059,3.76e+00,
1060,3.68e+00,
1061,3.68e+00,
1062,3.68e+00,
1063,3.68e+00,
1064,3.68e+00,
1065,3.68e+00,
1066,3.68e+00,
1067,3.68e+00,
1068,3.68e+00,
1069,3.68e+00,
1070,3.68e+00,
1071,3.68e+00,
1072,3.68e+00,
1073,3.68e+00,
1074,3.68e+00,
1075,3.68e+00,
1076,3.68e+00,
1077,3.68e+00,
1078,3.68e+00,
1079,3.68e+00,
1080,3.68e+00,
1081,3.68e+00,
1082,3.68e+00,
1083,3.68e+00,
1084,3.68e+00,
1085,3.68e+00,
1086,3.68e+00,
1087,3.68e+00,
1088,3.68e+00,
1089,3.68e+00,
1090,3.68e+00,
1091,3.68e+00,
1092,3.68e+00,
1093,3.68e+00,
1094,3.68e+00,
1095,3.68e+00,
1096,3.68e+00,
1097,3.68e+00,
1098,3.68e+00,
1099,3.68e+00,
1100,3.68e+00,
1101,3.68e+00,
1102,3.60e+00,
1103,3.68e+00,
1104,3.68e+00,
1105,3.68e+00,
1106,3.68e+00,
1107,3.60e+00,
1108,3.60e+00,
1109,3.60e+00,
1110,3.60e+00,
1111,3.60e+00,
1112,3.60e+00,
1113,3.60e+00,
1114,3.60e+00,
1115,3.60e+00,
1116,3.60e+00,
1117,3.60e+00,
1118,3.60e+00,
1119,3.60e+00,
1120,3.60e+00,
1121,3.60e+00,
1122,3.60e+00,
1123,3.60e+00,
1124,3.60e+00,
1125,3.60e+00,
1126,3.60e+00,
1127,3.60e+00,
1128,3.60e+00,
1129,3.60e+00,
1130,3.60e+00,
1131,3.60e+00,
1132,3.60e+00,
1133,3.60e+00,
1134,3.60e+00,
1135,3.60e+00,
1136,3.60e+00,
1137,3.60e+00,
1138,3.52e+00,
1139,3.52e+00,
1140,3.52e+00,
1141,3.52e+00,
1142,3.52e+00,
1143,3.52e+00,
1144,3.52e+00,
1145,3.52e+00,
1146,3.52e+00,
1147,3.52e+00,
1148,3.52e+00,
1149,3.52e+00,
1150,3.52e+00,
1151,3.52e+00,
1152,3.52e+00,
1153,3.52e+00,
1154,3.52e+00,
1155,3.52e+00,
1156,3.52e+00,
1157,3.52e+00,
1158,3.52e+00,
1159,3.52e+00,
1160,3.52e+00,
1161,3.52e+00,
1162,3.52e+00,
1163,3.52e+00,
1164,3.52e+00,
1165,3.52e+00,
1166,3.44e+00,
1167,3.44e+00,
1168,3.44e+00,
1169,3.44e+00,
1170,3.44e+00,
1171,3.44e+00,
1172,3.44e+00,
1173,3.44e+00,
1174,3.44e+00,
1175,3.44e+00,
1176,3.44e+00,
1177,3.44e+00,
1178,3.44e+00,
1179,3.44e+00,
1180,3.44e+00,
1181,3.44e+00,
1182,3.44e+00,
1183,3.44e+00,
1184,3.44e+00,
1185,3.44e+00,
1186,3.44e+00,
1187,3.44e+00,
1188,3.44e+00,
1189,3.44e+00,
1190,3.44e+00,
1191,3.44e+00,
1192,3.36e+00,
1193,3.36e+00,
1194,3.36e+00,
1195,3.36e+00,
1196,3.36e+00,
1197,3.36e+00,
1198,3.36e+00,
1199,3.36e+00,
1200,3.36e+00,
1201,3.36e+00,
1202,3.36e+00,
1203,3.36e+00,
1204,3.36e+00,
1205,3.36e+00,
1206,3.36e+00,
1207,3.36e+00,
1208,3.36e+00,
1209,3.36e+00,
1210,3.36e+00,
1211,3.36e+00,
1212,3.36e+00,
1213,3.28e+00,
1214,3.28e+00,
1215,3.28e+00,
1216,3.28e+00,
1217,3.28e+00,
1218,3.28e+00,
1219,3.28e+00,
1220,3.28e+00,
1221,3.28e+00,
1222,3.28e+00,
1223,3.28e+00,
1224,3.28e+00,
1225,3.28e+00,
1226,3.28e+00,
1227,3.28e+00,
1228,3.28e+00,
1229,3.28e+00,
1230,3.28e+00,
1231,3.28e+00,
1232,3.28e+00,
1233,3.28e+00,
1234,3.20e+00,
1235,3.20e+00,
1236,3.20e+00,
1237,3.20e+00,
1238,3.20e+00,
1239,3.20e+00,
1240,3.20e+00,
1241,3.20e+00,
1242,3.20e+00,
1243,3.20e+00,
1244,3.20e+00,
1245,3.20e+00,
1246,3.20e+00,
1247,3.20e+00,
1248,3.20e+00,
1249,3.20e+00,
1250,3.20e+00,
1251,3.20e+00,
1252,3.20e+00,
1253,3.12e+00,
1254,3.12e+00,
1255,3.12e+00,
1256,3.12e+00,
1257,3.12e+00,
1258,3.12e+00,
1259,3.12e+00,
1260,3.12e+00,
1261,3.12e+00,
1262,3.12e+00,
1263,3.12e+00,
1264,3.12e+00,
1265,3.12e+00,
1266,3.12e+00,
1267,3.12e+00,
1268,3.12e+00,
1269,3.12e+00,
1270,3.12e+00,
1271,3.04e+00,
1272,3.12e+00,
1273,3.04e+00,
1274,3.04e+00,
1275,3.04e+00,
1276,3.04e+00,
1277,3.04e+00,
1278,3.04e+00,
1279,3.04e+00,
1280,3.04e+00,
1281,3.04e+00,
1282,3.04e+00,
1283,3.04e+00,
1284,3.04e+00,
1285,3.04e+00,
1286,3.04e+00,
1287,3.04e+00,
1288,2.96e+00,
1289,2.96e+00,
1290,2.96e+00,
1291,2.96e+00,
1292,2.96e+00,
1293,2.96e+00,
1294,2.96e+00,
1295,2.96e+00,
1296,2.96e+00,
1297,2.96e+00,
1298,2.96e+00,
1299,2.96e+00,
1300,2.96e+00,
1301,2.96e+00,
1302,2.96e+00,
1303,2.96e+00,
1304,2.88e+00,
1305,2.88e+00,
1306,2.88e+00,
1307,2.88e+00,
1308,2.88e+00,
1309,2.88e+00,
1310,2.88e+00,
1311,2.88e+00,
1312,2.88e+00,
1313,2.88e+00,
1314,2.88e+00,
1315,2.88e+00,
1316,2.88e+00,
1317,2.88e+00,
1318,2.80e+00,
1319,2.88e+00,
1320,2.80e+00,
1321,2.80e+00,
1322,2.80e+00,
1323,2.80e+00,
1324,2.80e+00,
1325,2.80e+00,
1326,2.80e+00,
1327,2.80e+00,
1328,2.80e+00,
1329,2.80e+00,
1330,2.80e+00,
1331,2.80e+00,
1332,2.80e+00,
1333,2.72e+00,
1334,2.72e+00,
1335,2.72e+00,
1336,2.72e+00,
1337,2.72e+00,
1338,2.72e+00,
1339,2.72e+00,
1340,2.72e+00,
1341,2.72e+00,
1342,2.72e+00,
1343,2.72e+00,
1344,2.72e+00,
1345,2.72e+00,
1346,2.72e+00,
1347,2.72e+00,
1348,2.64e+00,
1349,2.64e+00,
1350,2.64e+00,
1351,2.64e+00,
1352,2.64e+00,
1353,2.64e+00,
1354,2.64e+00,
1355,2.64e+00,
1356,2.64e+00,
1357,2.64e+00,
1358,2.64e+00,
1359,2.64e+00,
1360,2.64e+00,
1361,2.64e+00,
1362,2.56e+00,
1363,2.56e+00,
1364,2.56e+00,
1365,2.56e+00,
1366,2.56e+00,
1367,2.56e+00,
1368,2.56e+00,
1369,2.56e+00,
1370,2.56e+00,
1371,2.56e+00,
1372,2.56e+00,
1373,2.56e+00,
1374,2.48e+00,
1375,2.48e+00,
1376,2.48e+00,
1377,2.48e+00,
1378,2.48e+00,
1379,2.48e+00,
1380,2.48e+00,
1381,2.48e+00,
1382,2.48e+00,
