TERCER SEMESTRE/TEORIA DE CIRCUITOS AC/lab 2/LAB.2/NewFile2.csv

X,CH3,Start,Increment,
Sequence,Volt,-1.200000e-06,2.000000e-09
0,1.00e+00,
1,1.00e+00,
2,1.00e+00,
3,1.00e+00,
4,1.04e+00,
5,1.04e+00,
6,1.04e+00,
7,1.04e+00,
8,1.08e+00,
9,1.08e+00,
10,1.08e+00,
11,1.08e+00,
12,1.08e+00,
13,1.12e+00,
14,1.12e+00,
15,1.12e+00,
16,1.12e+00,
17,1.12e+00,
18,1.12e+00,
19,1.20e+00,
20,1.16e+00,
21,1.20e+00,
22,1.20e+00,
23,1.16e+00,
24,1.16e+00,
25,1.16e+00,
26,1.20e+00,
27,1.16e+00,
28,1.16e+00,
29,1.16e+00,
30,1.16e+00,
31,1.16e+00,
32,1.16e+00,
33,1.16e+00,
34,1.16e+00,
35,1.16e+00,
36,1.24e+00,
37,1.16e+00,
38,1.20e+00,
39,1.16e+00,
40,1.20e+00,
41,1.20e+00,
42,1.20e+00,
43,1.16e+00,
44,1.16e+00,
45,1.12e+00,
46,1.12e+00,
47,1.16e+00,
48,1.12e+00,
49,1.12e+00,
50,1.16e+00,
51,1.16e+00,
52,1.16e+00,
53,1.12e+00,
54,1.12e+00,
55,1.08e+00,
56,1.08e+00,
57,1.08e+00,
58,1.04e+00,
59,1.04e+00,
60,1.04e+00,
61,1.04e+00,
62,1.00e+00,
63,1.00e+00,
64,1.00e+00,
65,1.00e+00,
66,9.60e-01,
67,9.60e-01,
68,9.60e-01,
69,9.20e-01,
70,9.20e-01,
71,8.80e-01,
72,8.80e-01,
73,8.80e-01,
74,8.40e-01,
75,8.40e-01,
76,8.40e-01,
77,8.00e-01,
78,7.60e-01,
79,8.00e-01,
80,7.60e-01,
81,7.20e-01,
82,6.80e-01,
83,6.80e-01,
84,6.80e-01,
85,6.40e-01,
86,6.40e-01,
87,6.00e-01,
88,6.00e-01,
89,6.00e-01,
90,5.60e-01,
91,5.20e-01,
92,5.20e-01,
93,5.20e-01,
94,4.80e-01,
95,4.80e-01,
96,4.40e-01,
97,4.40e-01,
98,4.00e-01,
99,4.00e-01,
100,3.60e-01,
101,3.60e-01,
102,2.80e-01,
103,3.20e-01,
104,2.80e-01,
105,2.40e-01,
106,2.40e-01,
107,2.00e-01,
108,2.40e-01,
109,2.00e-01,
110,2.00e-01,
111,1.60e-01,
112,1.20e-01,
113,8.00e-02,
114,1.20e-01,
115,8.00e-02,
116,8.00e-02,
117,0.00e+00,
118,0.00e+00,
119,-4.00e-02,
120,-4.00e-02,
121,-1.20e-01,
122,-8.00e-02,
123,-1.20e-01,
124,-1.20e-01,
125,-1.60e-01,
126,-1.60e-01,
127,-2.40e-01,
128,-2.40e-01,
129,-2.80e-01,
130,-2.80e-01,
131,-2.80e-01,
132,-3.20e-01,
133,-3.60e-01,
134,-3.60e-01,
135,-3.20e-01,
136,-4.00e-01,
137,-4.00e-01,
138,-4.40e-01,
139,-4.40e-01,
140,-4.80e-01,
141,-4.80e-01,
142,-4.80e-01,
143,-5.20e-01,
144,-5.20e-01,
145,-5.20e-01,
146,-5.60e-01,
147,-6.40e-01,
148,-6.00e-01,
149,-6.40e-01,
150,-6.40e-01,
151,-6.40e-01,
152,-6.80e-01,
153,-6.80e-01,
154,-6.80e-01,
155,-7.20e-01,
156,-7.20e-01,
157,-8.00e-01,
158,-8.00e-01,
159,-8.00e-01,
160,-8.40e-01,
161,-8.40e-01,
162,-8.40e-01,
163,-8.80e-01,
164,-8.40e-01,
165,-8.80e-01,
166,-8.80e-01,
167,-9.20e-01,
168,-9.20e-01,
169,-9.60e-01,
170,-9.60e-01,
171,-9.60e-01,
172,-1.00e+00,
173,-1.00e+00,
174,-1.00e+00,
175,-1.00e+00,
176,-1.04e+00,
177,-1.04e+00,
178,-1.04e+00,
179,-1.08e+00,
180,-1.08e+00,
181,-1.12e+00,
182,-1.08e+00,
183,-1.08e+00,
184,-1.12e+00,
185,-1.16e+00,
186,-1.16e+00,
187,-1.20e+00,
188,-1.16e+00,
189,-1.16e+00,
190,-1.16e+00,
191,-1.20e+00,
192,-1.20e+00,
193,-1.20e+00,
194,-1.20e+00,
195,-1.20e+00,
196,-1.20e+00,
197,-1.24e+00,
198,-1.20e+00,
199,-1.20e+00,
200,-1.20e+00,
201,-1.20e+00,
202,-1.20e+00,
203,-1.24e+00,
204,-1.28e+00,
205,-1.28e+00,
206,-1.28e+00,
207,-1.28e+00,
208,-1.24e+00,
209,-1.28e+00,
210,-1.24e+00,
211,-1.28e+00,
212,-1.20e+00,
213,-1.28e+00,
214,-1.20e+00,
215,-1.20e+00,
216,-1.24e+00,
217,-1.28e+00,
218,-1.20e+00,
219,-1.20e+00,
220,-1.20e+00,
221,-1.20e+00,
222,-1.20e+00,
223,-1.24e+00,
224,-1.16e+00,
225,-1.24e+00,
226,-1.16e+00,
227,-1.16e+00,
228,-1.16e+00,
229,-1.16e+00,
230,-1.12e+00,
231,-1.12e+00,
232,-1.16e+00,
233,-1.12e+00,
234,-1.12e+00,
235,-1.12e+00,
236,-1.12e+00,
237,-1.12e+00,
238,-1.12e+00,
239,-1.04e+00,
240,-1.04e+00,
241,-1.04e+00,
242,-1.00e+00,
243,-1.00e+00,
244,-1.00e+00,
245,-1.00e+00,
246,-9.60e-01,
247,-9.60e-01,
248,-9.20e-01,
249,-9.60e-01,
250,-9.20e-01,
251,-9.20e-01,
252,-8.80e-01,
253,-8.80e-01,
254,-8.40e-01,
255,-8.40e-01,
256,-8.40e-01,
257,-8.00e-01,
258,-8.00e-01,
259,-7.20e-01,
260,-7.20e-01,
261,-7.60e-01,
262,-7.20e-01,
263,-7.20e-01,
264,-6.40e-01,
265,-6.80e-01,
266,-6.00e-01,
267,-6.00e-01,
268,-6.40e-01,
269,-6.00e-01,
270,-5.60e-01,
271,-5.60e-01,
272,-5.20e-01,
273,-4.80e-01,
274,-4.80e-01,
275,-4.80e-01,
276,-4.40e-01,
277,-4.40e-01,
278,-3.60e-01,
279,-3.60e-01,
280,-3.60e-01,
281,-3.60e-01,
282,-3.20e-01,
283,-3.20e-01,
284,-2.80e-01,
285,-2.40e-01,
286,-2.00e-01,
287,-2.00e-01,
288,-1.60e-01,
289,-1.60e-01,
290,-1.20e-01,
291,-1.20e-01,
292,-8.00e-02,
293,-8.00e-02,
294,-8.00e-02,
295,-4.00e-02,
296,-4.00e-02,
297,0.00e+00,
298,0.00e+00,
299,4.00e-02,
300,4.00e-02,
301,8.00e-02,
302,1.20e-01,
303,1.20e-01,
304,1.20e-01,
305,2.00e-01,
306,1.60e-01,
307,2.40e-01,
308,2.00e-01,
309,2.40e-01,
310,2.80e-01,
311,2.40e-01,
312,2.80e-01,
313,2.80e-01,
314,3.20e-01,
315,3.60e-01,
316,4.00e-01,
317,4.00e-01,
318,3.60e-01,
319,4.40e-01,
320,4.80e-01,
321,4.80e-01,
322,4.80e-01,
323,5.20e-01,
324,5.20e-01,
325,5.20e-01,
326,5.60e-01,
327,5.60e-01,
328,6.00e-01,
329,6.00e-01,
330,6.40e-01,
331,6.40e-01,
332,6.80e-01,
333,6.80e-01,
334,7.20e-01,
335,7.20e-01,
336,7.20e-01,
337,7.60e-01,
338,7.20e-01,
339,7.60e-01,
340,8.00e-01,
341,8.40e-01,
342,8.40e-01,
343,8.40e-01,
344,8.80e-01,
345,8.80e-01,
346,9.20e-01,
347,9.20e-01,
348,9.20e-01,
349,9.20e-01,
350,9.20e-01,
351,9.60e-01,
352,9.60e-01,
353,9.60e-01,
354,1.00e+00,
355,1.00e+00,
356,1.00e+00,
357,1.04e+00,
358,1.04e+00,
359,1.04e+00,
360,1.04e+00,
361,1.04e+00,
362,1.08e+00,
363,1.08e+00,
364,1.08e+00,
365,1.08e+00,
366,1.08e+00,
367,1.12e+00,
368,1.16e+00,
369,1.16e+00,
370,1.16e+00,
371,1.16e+00,
372,1.16e+00,
373,1.16e+00,
374,1.16e+00,
375,1.20e+00,
376,1.20e+00,
377,1.16e+00,
378,1.16e+00,
379,1.16e+00,
380,1.24e+00,
381,1.16e+00,
382,1.20e+00,
383,1.24e+00,
384,1.24e+00,
385,1.24e+00,
386,1.20e+00,
387,1.24e+00,
388,1.20e+00,
389,1.20e+00,
390,1.20e+00,
391,1.20e+00,
392,1.20e+00,
393,1.24e+00,
394,1.16e+00,
395,1.20e+00,
396,1.16e+00,
397,1.20e+00,
398,1.20e+00,
399,1.16e+00,
400,1.20e+00,
401,1.20e+00,
402,1.16e+00,
403,1.16e+00,
404,1.16e+00,
405,1.12e+00,
406,1.12e+00,
407,1.12e+00,
408,1.12e+00,
409,1.12e+00,
410,1.08e+00,
411,1.08e+00,
412,1.08e+00,
413,1.08e+00,
414,1.04e+00,
415,1.04e+00,
416,1.04e+00,
417,1.04e+00,
418,1.00e+00,
419,1.00e+00,
420,1.00e+00,
421,9.60e-01,
422,9.60e-01,
423,9.60e-01,
424,9.60e-01,
425,9.20e-01,
426,9.20e-01,
427,8.80e-01,
428,8.80e-01,
429,8.80e-01,
430,8.40e-01,
431,8.40e-01,
432,8.40e-01,
433,8.00e-01,
434,7.60e-01,
435,7.60e-01,
436,7.20e-01,
437,6.80e-01,
438,6.80e-01,
439,6.80e-01,
440,6.80e-01,
441,6.40e-01,
442,6.40e-01,
443,6.00e-01,
444,6.00e-01,
445,5.60e-01,
446,5.60e-01,
447,5.20e-01,
448,5.20e-01,
449,4.80e-01,
450,4.80e-01,
451,4.40e-01,
452,4.40e-01,
453,4.40e-01,
454,4.00e-01,
455,4.00e-01,
456,3.60e-01,
457,3.60e-01,
458,3.20e-01,
459,3.20e-01,
460,2.40e-01,
461,2.40e-01,
462,2.00e-01,
463,2.40e-01,
464,2.40e-01,
465,1.60e-01,
466,1.20e-01,
467,1.20e-01,
468,8.00e-02,
469,1.20e-01,
470,8.00e-02,
471,8.00e-02,
472,8.00e-02,
473,0.00e+00,
474,0.00e+00,
475,-4.00e-02,
476,-4.00e-02,
477,-8.00e-02,
478,-1.60e-01,
479,-1.60e-01,
480,-1.60e-01,
481,-1.60e-01,
482,-2.00e-01,
483,-2.40e-01,
484,-2.40e-01,
485,-2.40e-01,
486,-2.80e-01,
487,-3.20e-01,
488,-2.80e-01,
489,-3.60e-01,
490,-3.60e-01,
491,-4.00e-01,
492,-3.60e-01,
493,-4.00e-01,
494,-4.40e-01,
495,-4.40e-01,
496,-4.80e-01,
497,-5.20e-01,
498,-5.20e-01,
499,-5.20e-01,
500,-5.60e-01,
501,-5.60e-01,
502,-5.60e-01,
503,-6.00e-01,
504,-6.00e-01,
505,-6.80e-01,
506,-6.80e-01,
507,-6.40e-01,
508,-6.80e-01,
509,-7.20e-01,
510,-7.20e-01,
511,-7.20e-01,
512,-7.20e-01,
513,-8.00e-01,
514,-7.60e-01,
515,-7.60e-01,
516,-8.40e-01,
517,-8.40e-01,
518,-8.80e-01,
519,-8.80e-01,
520,-8.40e-01,
521,-9.20e-01,
522,-9.20e-01,
523,-9.20e-01,
524,-9.60e-01,
525,-9.60e-01,
526,-9.60e-01,
527,-1.00e+00,
528,-1.00e+00,
529,-1.00e+00,
530,-1.04e+00,
531,-1.04e+00,
532,-1.04e+00,
533,-1.04e+00,
534,-1.04e+00,
535,-1.08e+00,
536,-1.08e+00,
537,-1.08e+00,
538,-1.12e+00,
539,-1.12e+00,
540,-1.16e+00,
541,-1.12e+00,
542,-1.12e+00,
543,-1.12e+00,
544,-1.20e+00,
545,-1.20e+00,
546,-1.20e+00,
547,-1.20e+00,
548,-1.20e+00,
549,-1.24e+00,
550,-1.20e+00,
551,-1.20e+00,
552,-1.24e+00,
553,-1.20e+00,
554,-1.24e+00,
555,-1.24e+00,
556,-1.24e+00,
557,-1.20e+00,
558,-1.20e+00,
559,-1.28e+00,
560,-1.28e+00,
561,-1.24e+00,
562,-1.24e+00,
563,-1.24e+00,
564,-1.24e+00,
565,-1.24e+00,
566,-1.20e+00,
567,-1.20e+00,
568,-1.24e+00,
569,-1.28e+00,
570,-1.20e+00,
571,-1.24e+00,
572,-1.20e+00,
573,-1.24e+00,
574,-1.24e+00,
575,-1.20e+00,
576,-1.24e+00,
577,-1.24e+00,
578,-1.20e+00,
579,-1.16e+00,
580,-1.20e+00,
581,-1.20e+00,
582,-1.20e+00,
583,-1.16e+00,
584,-1.20e+00,
585,-1.16e+00,
586,-1.12e+00,
587,-1.12e+00,
588,-1.16e+00,
589,-1.12e+00,
590,-1.08e+00,
591,-1.08e+00,
592,-1.08e+00,
593,-1.08e+00,
594,-1.04e+00,
595,-1.04e+00,
596,-1.04e+00,
597,-1.04e+00,
598,-1.00e+00,
599,-1.00e+00,
600,-1.00e+00,
601,-9.60e-01,
602,-9.60e-01,
603,-9.60e-01,
604,-9.20e-01,
605,-9.20e-01,
606,-9.20e-01,
607,-8.80e-01,
608,-8.80e-01,
609,-8.80e-01,
610,-8.40e-01,
611,-8.00e-01,
612,-7.60e-01,
613,-8.00e-01,
614,-7.20e-01,
615,-7.20e-01,
616,-7.60e-01,
617,-6.80e-01,
618,-6.80e-01,
619,-6.80e-01,
620,-6.40e-01,
621,-6.40e-01,
622,-6.00e-01,
623,-6.40e-01,
624,-6.00e-01,
625,-6.00e-01,
626,-5.60e-01,
627,-5.20e-01,
628,-4.80e-01,
629,-4.80e-01,
630,-4.80e-01,
631,-4.40e-01,
632,-4.40e-01,
633,-4.00e-01,
634,-4.00e-01,
635,-3.60e-01,
636,-3.60e-01,
637,-3.60e-01,
638,-2.80e-01,
639,-2.80e-01,
640,-2.80e-01,
641,-2.80e-01,
642,-2.00e-01,
643,-1.60e-01,
644,-1.60e-01,
645,-1.60e-01,
646,-1.20e-01,
647,-1.20e-01,
648,-8.00e-02,
649,-8.00e-02,
650,-4.00e-02,
651,-4.00e-02,
652,0.00e+00,
653,0.00e+00,
654,4.00e-02,
655,4.00e-02,
656,8.00e-02,
657,8.00e-02,
658,1.20e-01,
659,1.20e-01,
660,2.00e-01,
661,2.00e-01,
662,2.00e-01,
663,2.40e-01,
664,2.00e-01,
665,2.80e-01,
666,2.40e-01,
667,3.20e-01,
668,3.20e-01,
669,3.20e-01,
670,3.60e-01,
671,3.60e-01,
672,4.00e-01,
673,4.00e-01,
674,4.40e-01,
675,4.40e-01,
676,4.80e-01,
677,4.80e-01,
678,4.80e-01,
679,5.20e-01,
680,5.20e-01,
681,5.60e-01,
682,5.60e-01,
683,6.00e-01,
684,6.00e-01,
685,6.00e-01,
686,6.40e-01,
687,6.40e-01,
688,6.80e-01,
689,6.80e-01,
690,7.20e-01,
691,7.20e-01,
692,7.60e-01,
693,7.60e-01,
694,7.60e-01,
695,7.60e-01,
696,7.60e-01,
697,8.40e-01,
698,8.00e-01,
699,8.00e-01,
700,8.40e-01,
701,8.40e-01,
702,8.80e-01,
703,9.20e-01,
704,9.20e-01,
705,9.20e-01,
706,9.20e-01,
707,9.60e-01,
708,9.60e-01,
709,9.60e-01,
710,1.00e+00,
711,1.00e+00,
712,1.00e+00,
713,1.08e+00,
714,1.04e+00,
715,1.04e+00,
716,1.04e+00,
717,1.04e+00,
718,1.04e+00,
719,1.08e+00,
720,1.08e+00,
721,1.08e+00,
722,1.08e+00,
723,1.08e+00,
724,1.12e+00,
725,1.12e+00,
726,1.16e+00,
727,1.12e+00,
728,1.16e+00,
729,1.16e+00,
730,1.16e+00,
731,1.16e+00,
732,1.16e+00,
733,1.20e+00,
734,1.16e+00,
735,1.20e+00,
736,1.16e+00,
737,1.20e+00,
738,1.16e+00,
739,1.20e+00,
740,1.24e+00,
741,1.24e+00,
742,1.20e+00,
743,1.20e+00,
744,1.20e+00,
745,1.16e+00,
746,1.16e+00,
747,1.20e+00,
748,1.16e+00,
749,1.16e+00,
750,1.16e+00,
751,1.16e+00,
752,1.20e+00,
753,1.16e+00,
754,1.20e+00,
755,1.16e+00,
756,1.20e+00,
757,1.20e+00,
758,1.16e+00,
759,1.16e+00,
760,1.12e+00,
761,1.12e+00,
762,1.12e+00,
763,1.16e+00,
764,1.08e+00,
765,1.08e+00,
766,1.08e+00,
767,1.08e+00,
768,1.12e+00,
769,1.04e+00,
770,1.04e+00,
771,1.04e+00,
772,1.04e+00,
773,1.00e+00,
774,1.00e+00,
775,1.00e+00,
776,9.60e-01,
777,9.60e-01,
778,9.60e-01,
779,9.20e-01,
780,8.80e-01,
781,9.20e-01,
782,8.80e-01,
783,8.80e-01,
784,8.80e-01,
785,8.80e-01,
786,8.40e-01,
787,7.60e-01,
788,7.60e-01,
789,7.60e-01,
790,7.60e-01,
791,7.20e-01,
792,7.60e-01,
793,7.20e-01,
794,7.20e-01,
795,6.80e-01,
796,6.40e-01,
797,6.80e-01,
798,6.00e-01,
799,6.00e-01,
800,6.00e-01,
801,5.60e-01,
802,5.20e-01,
803,5.20e-01,
804,5.20e-01,
805,4.80e-01,
806,4.80e-01,
807,4.40e-01,
808,4.40e-01,
809,4.00e-01,
810,3.60e-01,
811,3.60e-01,
812,3.60e-01,
813,3.20e-01,
814,3.20e-01,
815,2.40e-01,
816,2.40e-01,
817,2.00e-01,
818,2.00e-01,
819,1.60e-01,
820,1.60e-01,
821,1.20e-01,
822,1.20e-01,
823,1.20e-01,
824,8.00e-02,
825,4.00e-02,
826,4.00e-02,
827,4.00e-02,
828,0.00e+00,
829,-4.00e-02,
830,-4.00e-02,
831,-4.00e-02,
832,-8.00e-02,
833,-8.00e-02,
834,-1.60e-01,
835,-1.60e-01,
836,-1.60e-01,
837,-2.00e-01,
838,-2.00e-01,
839,-2.40e-01,
840,-2.40e-01,
841,-2.40e-01,
842,-2.80e-01,
843,-2.80e-01,
844,-3.60e-01,
845,-3.20e-01,
846,-3.60e-01,
847,-3.60e-01,
848,-4.00e-01,
849,-4.40e-01,
850,-4.40e-01,
851,-4.80e-01,
852,-4.80e-01,
853,-5.20e-01,
854,-5.20e-01,
855,-5.20e-01,
856,-5.60e-01,
857,-5.60e-01,
858,-6.00e-01,
859,-6.00e-01,
860,-6.40e-01,
861,-6.80e-01,
862,-6.40e-01,
863,-7.20e-01,
864,-7.20e-01,
865,-7.60e-01,
866,-7.20e-01,
867,-7.20e-01,
868,-7.60e-01,
869,-8.00e-01,
870,-8.40e-01,
871,-8.40e-01,
872,-8.40e-01,
873,-8.00e-01,
874,-8.40e-01,
875,-8.40e-01,
876,-8.40e-01,
877,-8.80e-01,
878,-8.80e-01,
879,-8.80e-01,
880,-9.20e-01,
881,-9.20e-01,
882,-9.60e-01,
883,-1.00e+00,
884,-1.00e+00,
885,-1.08e+00,
886,-1.08e+00,
887,-1.08e+00,
888,-1.08e+00,
889,-1.08e+00,
890,-1.08e+00,
891,-1.08e+00,
892,-1.08e+00,
893,-1.16e+00,
894,-1.16e+00,
895,-1.16e+00,
896,-1.12e+00,
897,-1.16e+00,
898,-1.12e+00,
899,-1.16e+00,
900,-1.16e+00,
901,-1.16e+00,
902,-1.16e+00,
903,-1.16e+00,
904,-1.16e+00,
905,-1.20e+00,
906,-1.20e+00,
907,-1.24e+00,
908,-1.24e+00,
909,-1.20e+00,
910,-1.24e+00,
911,-1.24e+00,
912,-1.20e+00,
913,-1.20e+00,
914,-1.20e+00,
915,-1.20e+00,
916,-1.24e+00,
917,-1.28e+00,
918,-1.28e+00,
919,-1.24e+00,
920,-1.20e+00,
921,-1.24e+00,
922,-1.24e+00,
923,-1.24e+00,
924,-1.20e+00,
925,-1.24e+00,
926,-1.20e+00,
927,-1.20e+00,
928,-1.20e+00,
929,-1.20e+00,
930,-1.20e+00,
931,-1.24e+00,
932,-1.20e+00,
933,-1.20e+00,
934,-1.24e+00,
935,-1.20e+00,
936,-1.16e+00,
937,-1.20e+00,
938,-1.16e+00,
939,-1.12e+00,
940,-1.16e+00,
941,-1.20e+00,
942,-1.12e+00,
943,-1.08e+00,
944,-1.16e+00,
945,-1.08e+00,
946,-1.08e+00,
947,-1.12e+00,
948,-1.08e+00,
949,-1.08e+00,
950,-1.04e+00,
951,-1.08e+00,
952,-1.00e+00,
953,-1.00e+00,
954,-1.00e+00,
955,-1.00e+00,
956,-9.60e-01,
957,-9.60e-01,
958,-9.60e-01,
959,-9.20e-01,
960,-9.20e-01,
961,-9.20e-01,
962,-8.80e-01,
963,-8.80e-01,
964,-8.40e-01,
965,-8.40e-01,
966,-8.40e-01,
967,-8.40e-01,
968,-8.00e-01,
969,-8.00e-01,
970,-7.60e-01,
971,-7.60e-01,
972,-6.80e-01,
973,-7.20e-01,
974,-7.20e-01,
975,-6.80e-01,
976,-6.80e-01,
977,-6.80e-01,
978,-6.00e-01,
979,-6.00e-01,
980,-5.60e-01,
981,-5.20e-01,
982,-5.20e-01,
983,-5.20e-01,
984,-4.80e-01,
985,-4.80e-01,
986,-4.40e-01,
987,-4.40e-01,
988,-4.00e-01,
989,-4.00e-01,
990,-3.60e-01,
991,-3.60e-01,
992,-3.20e-01,
993,-3.20e-01,
994,-2.80e-01,
995,-2.80e-01,
996,-2.00e-01,
997,-2.40e-01,
998,-2.00e-01,
999,-2.00e-01,
1000,-1.60e-01,
1001,-1.20e-01,
1002,-1.20e-01,
1003,-1.20e-01,
1004,-8.00e-02,
1005,-4.00e-02,
1006,-4.00e-02,
1007,0.00e+00,
1008,0.00e+00,
1009,4.00e-02,
1010,4.00e-02,
1011,8.00e-02,
1012,8.00e-02,
1013,1.60e-01,
1014,1.60e-01,
1015,1.20e-01,
1016,2.00e-01,
1017,2.00e-01,
1018,2.40e-01,
1019,2.40e-01,
1020,2.40e-01,
1021,2.80e-01,
1022,3.20e-01,
1023,3.20e-01,
1024,3.60e-01,
1025,3.60e-01,
1026,4.00e-01,
1027,3.60e-01,
1028,4.00e-01,
1029,4.00e-01,
1030,4.00e-01,
1031,4.40e-01,
1032,4.40e-01,
1033,5.20e-01,
1034,5.20e-01,
1035,5.20e-01,
1036,5.60e-01,
1037,5.60e-01,
1038,6.00e-01,
1039,6.00e-01,
1040,6.40e-01,
1041,6.40e-01,
1042,6.80e-01,
1043,6.80e-01,
1044,7.20e-01,
1045,7.60e-01,
1046,7.20e-01,
1047,7.20e-01,
1048,8.00e-01,
1049,8.00e-01,
1050,7.60e-01,
1051,8.00e-01,
1052,8.00e-01,
1053,8.00e-01,
1054,8.80e-01,
1055,8.40e-01,
1056,8.80e-01,
1057,9.20e-01,
1058,9.20e-01,
1059,9.20e-01,
1060,9.60e-01,
1061,9.60e-01,
1062,9.60e-01,
1063,1.00e+00,
1064,1.00e+00,
1065,1.08e+00,
1066,1.00e+00,
1067,1.04e+00,
1068,1.04e+00,
1069,1.04e+00,
1070,1.04e+00,
1071,1.08e+00,
1072,1.08e+00,
1073,1.12e+00,
1074,1.12e+00,
1075,1.12e+00,
1076,1.16e+00,
1077,1.16e+00,
1078,1.12e+00,
1079,1.12e+00,
1080,1.12e+00,
1081,1.16e+00,
1082,1.16e+00,
1083,1.16e+00,
1084,1.16e+00,
1085,1.16e+00,
1086,1.20e+00,
1087,1.20e+00,
1088,1.20e+00,
1089,1.20e+00,
1090,1.16e+00,
1091,1.16e+00,
1092,1.24e+00,
1093,1.24e+00,
1094,1.24e+00,
1095,1.20e+00,
1096,1.24e+00,
1097,1.24e+00,
1098,1.20e+00,
1099,1.24e+00,
1100,1.24e+00,
1101,1.20e+00,
1102,1.20e+00,
1103,1.16e+00,
1104,1.20e+00,
1105,1.20e+00,
1106,1.20e+00,
1107,1.16e+00,
1108,1.16e+00,
1109,1.16e+00,
1110,1.16e+00,
1111,1.16e+00,
1112,1.16e+00,
1113,1.16e+00,
1114,1.12e+00,
1115,1.12e+00,
1116,1.12e+00,
1117,1.12e+00,
1118,1.12e+00,
1119,1.08e+00,
1120,1.16e+00,
1121,1.08e+00,
1122,1.08e+00,
1123,1.04e+00,
1124,1.04e+00,
1125,1.04e+00,
1126,1.04e+00,
1127,1.04e+00,
1128,1.00e+00,
1129,1.00e+00,
1130,1.00e+00,
1131,9.60e-01,
1132,9.60e-01,
1133,9.60e-01,
1134,9.20e-01,
1135,9.20e-01,
1136,9.20e-01,
1137,9.20e-01,
1138,8.80e-01,
1139,8.80e-01,
1140,8.40e-01,
1141,8.00e-01,
1142,8.40e-01,
1143,7.60e-01,
1144,7.60e-01,
1145,8.00e-01,
1146,7.20e-01,
1147,7.60e-01,
1148,7.20e-01,
1149,6.80e-01,
1150,6.40e-01,
1151,6.40e-01,
1152,6.40e-01,
1153,6.00e-01,
1154,6.00e-01,
1155,5.60e-01,
1156,5.60e-01,
1157,5.20e-01,
1158,5.20e-01,
1159,4.80e-01,
1160,4.80e-01,
1161,4.80e-01,
1162,4.40e-01,
1163,4.40e-01,
1164,3.60e-01,
1165,3.60e-01,
1166,3.20e-01,
1167,3.60e-01,
1168,2.80e-01,
1169,2.80e-01,
1170,2.40e-01,
1171,2.80e-01,
1172,2.40e-01,
1173,2.00e-01,
1174,2.00e-01,
1175,2.00e-01,
1176,1.60e-01,
1177,1.20e-01,
1178,1.20e-01,
1179,1.20e-01,
1180,4.00e-02,
1181,4.00e-02,
1182,0.00e+00,
1183,0.00e+00,
1184,0.00e+00,
1185,-8.00e-02,
1186,-4.00e-02,
1187,-8.00e-02,
1188,-8.00e-02,
1189,-1.20e-01,
1190,-1.20e-01,
1191,-2.00e-01,
1192,-2.00e-01,
1193,-2.00e-01,
1194,-2.00e-01,
1195,-2.40e-01,
1196,-2.80e-01,
1197,-2.80e-01,
1198,-2.80e-01,
1199,-2.80e-01,
